waveform7.vcd
$date
	Mon Jan 13 00:13:42 2025
$end
$version
	Icarus Verilog
$end
$timescale
	1ps
$end
$scope module Top_tb $end
$var wire 16 ! writeData [15:0] $end
$var wire 1 " memwrite $end
$var wire 16 # DataAdr [15:0] $end
$var reg 1 $ clk $end
$var reg 1 % reset $end
$scope module uut $end
$var wire 1 $ clk $end
$var wire 1 % reset $end
$var wire 16 & writeData [15:0] $end
$var wire 16 ' readData [15:0] $end
$var wire 1 " memwrite $end
$var wire 16 ( instr [15:0] $end
$var wire 16 ) PC [15:0] $end
$var wire 16 * DataAdr [15:0] $end
$scope module dmem $end
$var wire 1 $ CLK $end
$var wire 1 " WE $end
$var wire 16 + WD [15:0] $end
$var wire 16 , A [15:0] $end
$var reg 16 - RD [15:0] $end
$scope task printMemory $end
$var integer 32 . i [31:0] $end
$upscope $end
$upscope $end
$scope module imem $end
$var wire 16 / A [15:0] $end
$var reg 16 0 RD [15:0] $end
$scope task print_memory $end
$var integer 32 1 i [31:0] $end
$upscope $end
$upscope $end
$scope module p1 $end
$var wire 1 $ clk $end
$var wire 16 2 instr [15:0] $end
$var wire 16 3 readData [15:0] $end
$var wire 1 % rst $end
$var wire 1 4 writeToRegW $end
$var wire 1 5 writeToMemE $end
$var wire 1 " memM $end
$var wire 1 6 loadE $end
$var wire 16 7 instructionToDecode [15:0] $end
$var wire 1 8 WriteToReg $end
$var wire 1 9 WriteToMEM $end
$var wire 16 : WriteData [15:0] $end
$var wire 3 ; WB3 [2:0] $end
$var wire 3 < WB2 [2:0] $end
$var wire 3 = WB1 [2:0] $end
$var wire 1 > UpdateRR $end
$var wire 1 ? Stall $end
$var wire 1 @ SelectPCSrc $end
$var wire 1 A Rtype $end
$var wire 1 B RegWriteW $end
$var wire 1 C RegWriteM $end
$var wire 16 D PC [15:0] $end
$var wire 1 E Logical $end
$var wire 1 F LoadM $end
$var wire 1 G Load $end
$var wire 1 H JMP $end
$var wire 1 I IMM $end
$var wire 2 J ForwardB [1:0] $end
$var wire 2 K ForwardA [1:0] $end
$var wire 1 L ForSignal $end
$var wire 1 M Branch $end
$var wire 1 N BNE $end
$var wire 3 O B [2:0] $end
$var wire 16 P AluOut [15:0] $end
$var wire 3 Q AluControl [2:0] $end
$var wire 3 R A [2:0] $end
$scope module c $end
$var wire 3 S func [2:0] $end
$var wire 4 T opcode [3:0] $end
$var wire 2 U aluop [1:0] $end
$var wire 1 8 WriteToReg $end
$var wire 1 9 WriteToMEM $end
$var wire 1 > UpdateRR $end
$var wire 1 @ SelectPCSrc $end
$var wire 1 A RType $end
$var wire 1 E Logical $end
$var wire 1 G Load $end
$var wire 1 H JMP $end
$var wire 1 I IMM $end
$var wire 1 L ForSignal $end
$var wire 1 M Branch $end
$var wire 1 N BNE $end
$var wire 3 V AluControl [2:0] $end
$scope module alu1 $end
$var wire 3 W func [2:0] $end
$var wire 2 X aluop [1:0] $end
$var reg 3 Y alucontrol [2:0] $end
$upscope $end
$scope module main1 $end
$var wire 1 M Branch $end
$var wire 1 I IMM $end
$var wire 1 H JMP $end
$var wire 1 > UpdateRR $end
$var wire 1 8 WriteToReg $end
$var wire 3 Z func [2:0] $end
$var wire 4 [ opcode [3:0] $end
$var wire 1 9 WriteToMEM $end
$var wire 1 @ SelectPCSrc $end
$var wire 1 A RType $end
$var wire 1 E Logical $end
$var wire 1 G Load $end
$var wire 1 L ForSignal $end
$var wire 1 N BNE $end
$var wire 2 \ AluOp [1:0] $end
$upscope $end
$upscope $end
$scope module data $end
$var wire 16 ] RD [15:0] $end
$var wire 3 ^ alu_control [2:0] $end
$var wire 1 N bne $end
$var wire 1 _ branch $end
$var wire 1 M branch_signal $end
$var wire 1 $ clk $end
$var wire 1 L for_signal $end
$var wire 1 I imm $end
$var wire 16 ` inst_in [15:0] $end
$var wire 1 H jmp_target $end
$var wire 1 G load $end
$var wire 1 E logical_signal $end
$var wire 16 a pc_next [15:0] $end
$var wire 1 A r_type $end
$var wire 1 % rst $end
$var wire 1 @ slect_pc_src $end
$var wire 1 > update_rr $end
$var wire 1 9 write_to_mem $end
$var wire 1 8 write_to_reg $end
$var wire 1 b zero_signal $end
$var wire 1 c zero_signal_alu $end
$var wire 1 4 writeToRegW $end
$var wire 1 B writeToRegM $end
$var wire 1 C writeToRegE $end
$var wire 16 d rr_current [15:0] $end
$var wire 16 e reg_out_2_minus_1 [15:0] $end
$var wire 16 f reg_out2 [15:0] $end
$var wire 16 g reg_out1 [15:0] $end
$var wire 16 h pc_plus_1 [15:0] $end
$var wire 16 i pc_out [15:0] $end
$var wire 16 j out2_E [15:0] $end
$var wire 16 k out2 [15:0] $end
$var wire 16 l out1_E [15:0] $end
$var wire 16 m out1 [15:0] $end
$var wire 1 n not_zero $end
$var wire 1 o mux_zero_out $end
$var wire 16 p mux_wd3_2_out [15:0] $end
$var wire 16 q mux_wd3_1_out [15:0] $end
$var wire 16 r mux_rr_2_out [15:0] $end
$var wire 16 s mux_rr_1_out [15:0] $end
$var wire 16 t mux_r2_out [15:0] $end
$var wire 16 u mux_r1_out [15:0] $end
$var wire 16 v mux_out [15:0] $end
$var wire 16 w mux_next_pc_out [15:0] $end
$var wire 16 x mux_in3_out [15:0] $end
$var wire 3 y mux_a3_out [2:0] $end
$var wire 1 6 loadE $end
$var wire 16 z jmp_target_extended [15:0] $end
$var wire 16 { instructionToDecode [15:0] $end
$var wire 1 | immE $end
$var wire 16 } branch_extended_add_pc_plus_1 [15:0] $end
$var wire 16 ~ branch_extended [15:0] $end
$var wire 1 !" bneE $end
$var wire 1 "" and_out_2 $end
$var wire 1 #" and_out $end
$var wire 16 $" alu_out [15:0] $end
$var wire 3 %" aluControlE [2:0] $end
$var wire 1 &" WriteToRegD $end
$var wire 1 " WriteToMemoryM $end
$var wire 1 '" WriteToMEMD $end
$var wire 1 5 WriteMemoryE $end
$var wire 16 (" WBData [15:0] $end
$var wire 3 )" WB3 [2:0] $end
$var wire 3 *" WB2 [2:0] $end
$var wire 3 +" WB1 [2:0] $end
$var wire 1 ? Stall $end
$var wire 1 ," RtypeD $end
$var wire 1 -" LogicalD $end
$var wire 1 F LoadM $end
$var wire 1 ." LoadD $end
$var wire 1 /" IMMD $end
$var wire 2 0" ForwardB [1:0] $end
$var wire 2 1" ForwardA [1:0] $end
$var wire 1 2" ForSignalM $end
$var wire 1 3" ForSignalE $end
$var wire 1 4" ForSignalD $end
$var wire 16 5" EXT_Out [15:0] $end
$var wire 16 6" DataOut [15:0] $end
$var wire 1 7" BranchE $end
$var wire 1 8" BranchD $end
$var wire 1 9" BneD $end
$var wire 16 :" AluM [15:0] $end
$var wire 3 ;" AluControlD [2:0] $end
$var wire 3 <" A2 [2:0] $end
$var wire 3 =" A1 [2:0] $end
$scope module FWA $end
$var wire 16 >" out [15:0] $end
$var wire 2 ?" sel [1:0] $end
$var wire 16 @" in4 [15:0] $end
$var wire 16 A" in3 [15:0] $end
$var wire 16 B" in2 [15:0] $end
$var wire 16 C" in1 [15:0] $end
$var reg 16 D" mux_out [15:0] $end
$upscope $end
$scope module FWB $end
$var wire 16 E" out [15:0] $end
$var wire 2 F" sel [1:0] $end
$var wire 16 G" in4 [15:0] $end
$var wire 16 H" in3 [15:0] $end
$var wire 16 I" in2 [15:0] $end
$var wire 16 J" in1 [15:0] $end
$var reg 16 K" mux_out [15:0] $end
$upscope $end
$scope module adder $end
$var wire 16 L" In2 [15:0] $end
$var wire 16 M" out [15:0] $end
$var wire 16 N" In1 [15:0] $end
$upscope $end
$scope module adder_branch_pc_plus_1 $end
$var wire 16 O" out [15:0] $end
$var wire 16 P" In2 [15:0] $end
$var wire 16 Q" In1 [15:0] $end
$upscope $end
$scope module adder_reg_out_2_minus_1 $end
$var wire 16 R" In2 [15:0] $end
$var wire 16 S" out [15:0] $end
$var wire 16 T" In1 [15:0] $end
$upscope $end
$scope module alu $end
$var wire 16 U" and_result [15:0] $end
$var wire 1 c zeroflag $end
$var wire 16 V" sub_result [15:0] $end
$var wire 16 W" srl_result [15:0] $end
$var wire 16 X" sll_result [15:0] $end
$var wire 3 Y" alucontrol [2:0] $end
$var wire 16 Z" add_result [15:0] $end
$var wire 16 [" R2 [15:0] $end
$var wire 16 \" R1 [15:0] $end
$var wire 16 ]" Answer [15:0] $end
$upscope $end
$scope module and_1 $end
$var wire 1 L In2 $end
$var wire 1 #" out $end
$var wire 1 n In1 $end
$upscope $end
$scope module and_2 $end
$var wire 1 "" out $end
$var wire 1 7" In2 $end
$var wire 1 o In1 $end
$upscope $end
$scope module concat_jmp_target $end
$var wire 7 ^" in1 [6:0] $end
$var wire 9 _" in2 [8:0] $end
$var wire 16 `" out [15:0] $end
$upscope $end
$scope module dec $end
$var wire 3 a" AluControl [2:0] $end
$var wire 1 N BNE $end
$var wire 1 _ Branch $end
$var wire 1 $ CLK $end
$var wire 1 L ForSignalIn $end
$var wire 1 I IMM $end
$var wire 16 b" InstructionIn [15:0] $end
$var wire 1 G Load $end
$var wire 1 E Logical $end
$var wire 1 A RType $end
$var wire 1 % Reset $end
$var wire 1 9 WriteToMEM $end
$var wire 1 8 WriteToReg $end
$var wire 1 ? StallD $end
$var reg 1 9" BNEOut $end
$var reg 1 8" BranchOut $end
$var reg 1 4" ForSignalOut $end
$var reg 1 /" IMMOut $end
$var reg 16 c" InstructionOut [15:0] $end
$var reg 1 ." LoadOut $end
$var reg 1 -" LogicalOut $end
$var reg 1 ," RTypeOut $end
$var reg 1 '" WriteToMEMOut $end
$var reg 1 &" WriteToRegOut $end
$var reg 3 d" aluControlOut [2:0] $end
$upscope $end
$scope module execute $end
$var wire 1 9" BNEin $end
$var wire 1 /" IMMin $end
$var wire 3 e" aluControl [2:0] $end
$var wire 1 8" branchIn $end
$var wire 1 $ clk $end
$var wire 1 4" forSignalIn $end
$var wire 1 ." loadIn $end
$var wire 16 f" out1in [15:0] $end
$var wire 16 g" out2in [15:0] $end
$var wire 1 % rst $end
$var wire 1 '" writeMemoryIn $end
$var wire 1 &" writeRegIn $end
$var wire 3 h" wb1in [2:0] $end
$var wire 16 i" extin [15:0] $end
$var wire 1 ? FlushE $end
$var reg 1 !" BNEOut $end
$var reg 1 | IMMOut $end
$var reg 3 j" aluControlOut [2:0] $end
$var reg 1 7" branchOut $end
$var reg 16 k" extout [15:0] $end
$var reg 1 3" forSignalOut $end
$var reg 1 6 loadOut $end
$var reg 16 l" out1out [15:0] $end
$var reg 16 m" out2out [15:0] $end
$var reg 3 n" wb1out [2:0] $end
$var reg 1 5 writeMemoryOut $end
$var reg 1 C writeRegOut $end
$upscope $end
$scope module extender_branch $end
$var wire 6 o" in [5:0] $end
$var wire 1 -" logical_signal $end
$var wire 16 p" unsign_extended [15:0] $end
$var wire 16 q" sign_extended [15:0] $end
$var wire 16 r" out [15:0] $end
$upscope $end
$scope module memstage $end
$var wire 16 s" DataIn [15:0] $end
$var wire 3 t" WB2in [2:0] $end
$var wire 16 u" aluIn [15:0] $end
$var wire 1 $ clk $end
$var wire 1 3" forSignalIn $end
$var wire 1 6 loadIn $end
$var wire 1 % rst $end
$var wire 1 5 writeMemoryIn $end
$var wire 1 C writeRegIn $end
$var reg 16 v" DataOut [15:0] $end
$var reg 3 w" WB2out [2:0] $end
$var reg 16 x" aluOut [15:0] $end
$var reg 1 2" forSignalOut $end
$var reg 1 F loadOut $end
$var reg 1 " writeMemoryOut $end
$var reg 1 B writeRegOut $end
$upscope $end
$scope module mux_a1 $end
$var wire 3 y" I0 [2:0] $end
$var wire 3 z" I1 [2:0] $end
$var wire 1 ," Sel $end
$var reg 3 {" out [2:0] $end
$upscope $end
$scope module mux_a3 $end
$var wire 3 |" I0 [2:0] $end
$var wire 3 }" I1 [2:0] $end
$var wire 1 ," Sel $end
$var reg 3 ~" out [2:0] $end
$upscope $end
$scope module mux_in3 $end
$var wire 16 !# I1 [15:0] $end
$var wire 1 H Sel $end
$var wire 16 "# I0 [15:0] $end
$var reg 16 ## out [15:0] $end
$upscope $end
$scope module mux_next_pc $end
$var wire 16 $# in2 [15:0] $end
$var wire 16 %# in3 [15:0] $end
$var wire 16 &# in4 [15:0] $end
$var wire 16 '# out [15:0] $end
$var wire 2 (# sel [1:0] $end
$var wire 16 )# in1 [15:0] $end
$var reg 16 *# mux_out [15:0] $end
$upscope $end
$scope module mux_pc_src $end
$var wire 16 +# I0 [15:0] $end
$var wire 1 #" Sel $end
$var wire 16 ,# I1 [15:0] $end
$var reg 16 -# out [15:0] $end
$upscope $end
$scope module mux_r1 $end
$var wire 16 .# I0 [15:0] $end
$var wire 16 /# I1 [15:0] $end
$var wire 1 3" Sel $end
$var reg 16 0# out [15:0] $end
$upscope $end
$scope module mux_r2 $end
$var wire 16 1# I0 [15:0] $end
$var wire 16 2# I1 [15:0] $end
$var wire 1 | Sel $end
$var reg 16 3# out [15:0] $end
$upscope $end
$scope module mux_rr_1 $end
$var wire 16 4# I0 [15:0] $end
$var wire 1 L Sel $end
$var wire 16 5# I1 [15:0] $end
$var reg 16 6# out [15:0] $end
$upscope $end
$scope module mux_rr_2 $end
$var wire 16 7# I1 [15:0] $end
$var wire 1 > Sel $end
$var wire 16 8# I0 [15:0] $end
$var reg 16 9# out [15:0] $end
$upscope $end
$scope module mux_wd3 $end
$var wire 16 :# I1 [15:0] $end
$var wire 1 F Sel $end
$var wire 16 ;# I0 [15:0] $end
$var reg 16 <# out [15:0] $end
$upscope $end
$scope module mux_wd3_1 $end
$var wire 16 =# I0 [15:0] $end
$var wire 16 ># I1 [15:0] $end
$var wire 1 2" Sel $end
$var reg 16 ?# out [15:0] $end
$upscope $end
$scope module mux_zero $end
$var wire 1 b I0 $end
$var wire 1 !" Sel $end
$var wire 1 n I1 $end
$var reg 1 o out $end
$upscope $end
$scope module not_1 $end
$var wire 1 b in $end
$var wire 1 n out $end
$upscope $end
$scope module pc $end
$var wire 1 $ clk $end
$var wire 16 @# pc_next [15:0] $end
$var wire 1 % rst $end
$var wire 1 ? StallF $end
$var reg 16 A# pc_out [15:0] $end
$upscope $end
$scope module reg_file $end
$var wire 3 B# A1 [2:0] $end
$var wire 3 C# A2 [2:0] $end
$var wire 1 $ clk $end
$var wire 1 % rst $end
$var wire 1 4 WE3 $end
$var wire 16 D# WD3 [15:0] $end
$var wire 3 E# A3 [2:0] $end
$var reg 16 F# RD1 [15:0] $end
$var reg 16 G# RD2 [15:0] $end
$var integer 32 H# i [31:0] $end
$upscope $end
$scope module rr $end
$var wire 1 $ clk $end
$var wire 16 I# in [15:0] $end
$var wire 1 % rst $end
$var reg 16 J# out [15:0] $end
$upscope $end
$scope module wb $end
$var wire 16 K# DataIn [15:0] $end
$var wire 3 L# WB3in [2:0] $end
$var wire 1 $ clk $end
$var wire 1 % rst $end
$var wire 1 B writeRegIn $end
$var reg 16 M# DataOut [15:0] $end
$var reg 3 N# WB3out [2:0] $end
$var reg 1 4 writeRegOut $end
$upscope $end
$upscope $end
$scope module unit $end
$var wire 3 O# A [2:0] $end
$var wire 3 P# B [2:0] $end
$var wire 1 M BranchD $end
$var wire 1 L ForSignalD $end
$var wire 1 F LoadM $end
$var wire 1 C RegWriteE $end
$var wire 1 B RegWriteM $end
$var wire 1 4 RegWriteW $end
$var wire 3 Q# WB1 [2:0] $end
$var wire 3 R# WB2 [2:0] $end
$var wire 3 S# WB3 [2:0] $end
$var wire 1 T# branchstall $end
$var wire 1 6 loadE $end
$var wire 1 U# lwstall $end
$var reg 2 V# ForwardA [1:0] $end
$var reg 2 W# ForwardB [1:0] $end
$var reg 1 ? Stall $end
$upscope $end
$upscope $end
$upscope $end
$upscope $end
$enddefinitions $end
#0
$dumpvars
b0 W#
b0 V#
0U#
0T#
b0 S#
b0 R#
b0 Q#
b0 P#
b0 O#
b0 N#
b0 M#
b0 L#
b0 K#
b0 J#
b0 I#
b1000 H#
bx G#
bx F#
b0 E#
b0 D#
b0 C#
b0 B#
b0 A#
b1 @#
b0 ?#
b1111111111111111 >#
b0 =#
b0 <#
b0 ;#
b101000 :#
b0 9#
b0 8#
b1 7#
b1 6#
b0 5#
b1 4#
b0 3#
b0 2#
b0 1#
b0 0#
b0 /#
b0 .#
b1 -#
bx ,#
b1 +#
b1 *#
b1 )#
b0 (#
b1 '#
b0 &#
b0 %#
b0 $#
b0 ##
b0 "#
b10000 !#
b0 ~"
b0 }"
b0 |"
b0 {"
b0 z"
b0 y"
b0 x"
b0 w"
b0 v"
b0 u"
b0 t"
b0 s"
b0 r"
b0 q"
b0 p"
b0 o"
b0 n"
b0 m"
b0 l"
b0 k"
b0 j"
b0 i"
b0 h"
bx g"
bx f"
b0 e"
b0 d"
b0 c"
b100000010000111 b"
b1 a"
b10000 `"
b10000 _"
b0 ^"
b0 ]"
b0 \"
b0 ["
b0 Z"
b0 Y"
b0 X"
b0 W"
b0 V"
b0 U"
b0 T"
b1111111111111111 S"
b1111111111111111 R"
b0 Q"
b0 P"
b0 O"
b0 N"
b1 M"
b1 L"
bx K"
bx J"
b0 I"
b0 H"
b0 G"
b0 F"
bx E"
bx D"
bx C"
b0 B"
b0 A"
b0 @"
b0 ?"
bx >"
b0 ="
b0 <"
b0 ;"
b0 :"
09"
08"
07"
b0 6"
b0 5"
04"
03"
02"
b0 1"
b0 0"
0/"
0."
0-"
0,"
b0 +"
b0 *"
b0 )"
b0 ("
0'"
0&"
b0 %"
b0 $"
0#"
0""
0!"
b0 ~
b0 }
0|
b0 {
b10000 z
b0 y
b0 x
b1 w
b1 v
b0 u
b0 t
b1 s
b0 r
b0 q
b0 p
1o
0n
bx m
b0 l
bx k
b0 j
b0 i
b1 h
bx g
bx f
b1111111111111111 e
b0 d
1c
1b
b1 a
b100000010000111 `
z_
b1 ^
b101000 ]
b1 \
b100 [
b111 Z
b1 Y
b1 X
b111 W
b1 V
b1 U
b100 T
b111 S
b0 R
b1 Q
b0 P
b0 O
0N
0M
0L
b0 K
b0 J
1I
0H
1G
0F
0E
b0 D
0C
0B
0A
0@
0?
0>
b0 =
b0 <
b0 ;
b0 :
09
18
b0 7
06
05
04
b101000 3
b100000010000111 2
bx 1
b100000010000111 0
b0 /
bx .
b101000 -
b0 ,
b0 +
b0 *
b0 )
b100000010000111 (
b101000 '
b0 &
1%
1$
b0 #
0"
b0 !
$end
#1000
b0 k
b0 E"
b0 g"
b0 K"
b0 m
b0 >"
b0 f"
b0 D"
b0 f
b0 J"
b0 G#
b0 g
b0 C"
b0 ,#
b0 F#
0$
0%
#2000
b10 a
b10 @#
b10 w
b10 '#
b10 *#
b10 y
b10 h"
b10 ~"
b10 v
b10 )#
b10 -#
b10 s
b10 6#
b10 7#
1I
b111 ~
b111 i"
b111 r"
0G
b11 T
b11 [
b100 S
b100 W
b100 Z
b10010000 z
b10010000 `"
b10010000 !#
b10010000 _"
b10 O
b10 <"
b10 C#
b10 P#
b10 |"
b111 q"
b111 p"
b111 o"
b11010010000100 (
b11010010000100 0
b11010010000100 2
b11010010000100 `
b11010010000100 b"
b1 ;"
b1 d"
b1 e"
z8"
1/"
1&"
1."
b100000010000111 7
b100000010000111 {
b100000010000111 c"
b1 }
b1 O"
b1 $#
b10 h
b10 M"
b10 +#
b10 4#
b1 )
b1 /
b1 D
b1 i
b1 N"
b1 Q"
b1 5#
b1 A#
1$
#3000
0$
#4000
b11 a
b11 @#
b11 w
b11 '#
b11 *#
b111 m
b111 >"
b111 f"
b111 D"
b1 K
b1 1"
b1 ?"
b1 V#
b10 R
b10 ="
b10 {"
b10 B#
b10 O#
0o
b111 k
b111 E"
b111 g"
b111 K"
b11 v
b11 )#
b11 -#
b11 s
b11 6#
b11 7#
b111 W"
b111 X"
b111 V"
b111 Z"
b111 t
b111 ["
b111 3#
1?
b100 ~
b100 i"
b100 r"
1U#
1n
b10 }"
b10 y"
b100 q"
b100 p"
b100 o"
b0 (#
0""
0b
0c
b111 $"
b111 B"
b111 I"
b111 ]"
b111 u"
b1 J
b1 0"
b1 F"
b1 W#
b11 h
b11 M"
b11 +#
b11 4#
b10 )
b10 /
b10 D
b10 i
b10 N"
b10 Q"
b10 5#
b10 A#
0."
b11010010000100 7
b11010010000100 {
b11010010000100 c"
16
z7"
1|
b1 %"
b1 Y"
b1 j"
1C
b1001 }
b1001 O"
b1001 $#
b111 5"
b111 P"
b111 k"
b111 2#
b10 =
b10 +"
b10 n"
b10 t"
b10 Q#
1$
#5000
0$
#6000
1o
b0 k
b0 E"
b0 g"
b0 K"
b10 m
b10 >"
b10 f"
b10 D"
b10 p
b10 @"
b10 G"
b10 <#
b10 K#
b10 '
b10 -
b10 3
b10 ]
b10 :#
b111 q
b111 ;#
b111 ?#
b0 W"
b0 X"
b0 V"
b0 Z"
b0 t
b0 ["
b0 3#
0n
0?
1b
1c
b0 $"
b0 B"
b0 I"
b0 ]"
b0 u"
0U#
b10 J
b10 0"
b10 F"
b10 W#
b11 K
b11 1"
b11 ?"
b11 V#
1B
1F
b10 <
b10 *"
b10 w"
b10 L#
b10 R#
b111 #
b111 *
b111 ,
b111 P
b111 :"
b111 x"
b111 =#
06
07"
0|
b0 %"
b0 Y"
b0 j"
0C
b10 }
b10 O"
b10 $#
b0 5"
b0 P"
b0 k"
b0 2#
b0 =
b0 +"
b0 n"
b0 t"
b0 Q#
1$
#7000
0$
#8000
b100 a
b100 @#
b100 w
b100 '#
b100 *#
0o
b110 k
b110 E"
b110 g"
b110 K"
b110 m
b110 >"
b110 f"
b110 D"
b100 v
b100 )#
b100 -#
b100 s
b100 6#
b100 7#
b1 W"
b10000 X"
b100 t
b100 ["
b100 3#
b10 V"
b110 Z"
b10 u
b10 \"
b10 0#
b0 p
b0 @"
b0 G"
b0 <#
b0 K#
b101000 '
b101000 -
b101000 3
b101000 ]
b101000 :#
b0 q
b0 ;#
b0 ?#
b11 S
b11 W
b11 Z
b110110000 z
b110110000 `"
b110110000 !#
b110110000 _"
1n
b11110110000011 (
b11110110000011 0
b11110110000011 2
b11110110000011 `
b11110110000011 b"
b0 (#
0""
0b
0c
b110 $"
b110 B"
b110 I"
b110 ]"
b110 u"
b1 J
b1 0"
b1 F"
b1 W#
b1 K
b1 1"
b1 ?"
b1 V#
b100 h
b100 M"
b100 +#
b100 4#
b11 )
b11 /
b11 D
b11 i
b11 N"
b11 Q"
b11 5#
b11 A#
z7"
1|
b1 %"
b1 Y"
b1 j"
1C
b111 }
b111 O"
b111 $#
b100 5"
b100 P"
b100 k"
b100 2#
b10 =
b10 +"
b10 n"
b10 t"
b10 Q#
b10 l
b10 l"
b10 .#
0B
0F
b0 <
b0 *"
b0 w"
b0 L#
b0 R#
b0 #
b0 *
b0 ,
b0 P
b0 :"
b0 x"
b0 =#
14
b10 ;
b10 )"
b10 E#
b10 N#
b10 S#
b10 ("
b10 D#
b10 M#
1$
#9000
b10 f
b10 J"
b10 G#
b10 g
b10 C"
b10 ,#
b10 F#
0$
#10000
b10 m
b10 >"
b10 f"
b10 D"
b110 p
b110 @"
b110 G"
b110 <#
b110 K#
b101 a
b101 @#
b101 w
b101 '#
b101 *#
b1010 $"
b1010 B"
b1010 I"
b1010 ]"
b1010 u"
b0 W"
b100000000 X"
b100 U"
b10 k
b10 E"
b10 g"
b10 K"
b110 y
b110 h"
b110 ~"
b110 R
b110 ="
b110 {"
b110 B#
b110 O#
b10 '
b10 -
b10 3
b10 ]
b10 :#
b110 q
b110 ;#
b110 ?#
b1111111111111110 V"
b1010 Z"
b110 u
b110 \"
b110 0#
b101 v
b101 )#
b101 -#
b101 s
b101 6#
b101 7#
0I
b0 U
b0 X
b0 \
b11 ~
b11 i"
b11 r"
1A
b0 T
b0 [
b1 S
b1 W
b1 Z
b111010011 z
b111010011 `"
b111010011 !#
b111010011 _"
b0 J
b0 0"
b0 F"
b0 W#
b0 K
b0 1"
b0 ?"
b0 V#
b110 O
b110 <"
b110 C#
b110 P#
b110 }"
b110 |"
b110 y"
b11 q"
b11 p"
b11 o"
b111010011001 (
b111010011001 0
b111010011001 2
b111010011001 `
b111010011001 b"
04
b0 ;
b0 )"
b0 E#
b0 N#
b0 S#
b0 ("
b0 D#
b0 M#
1B
b10 <
b10 *"
b10 w"
b10 L#
b10 R#
b110 #
b110 *
b110 ,
b110 P
b110 :"
b110 x"
b110 =#
b110 j
b110 m"
b110 s"
b110 1#
b110 l
b110 l"
b110 .#
b11110110000011 7
b11110110000011 {
b11110110000011 c"
b1000 }
b1000 O"
b1000 $#
b101 h
b101 M"
b101 +#
b101 4#
b100 )
b100 /
b100 D
b100 i
b100 N"
b100 Q"
b100 5#
b100 A#
1$
#11000
b0 k
b0 E"
b0 g"
b0 K"
b0 m
b0 >"
b0 f"
b0 D"
b0 f
b0 J"
b0 G#
b0 g
b0 C"
b0 ,#
b0 F#
0$
#12000
b110 a
b110 @#
b110 w
b110 '#
b110 *#
b1010 p
b1010 @"
b1010 G"
b1010 <#
b1010 K#
b11 $"
b11 B"
b11 I"
b11 ]"
b11 u"
b11 W"
b0 U"
b1 Q
b1 V
b1 Y
b1 ^
b1 a"
b110 v
b110 )#
b110 -#
b110 s
b110 6#
b110 7#
b11 R
b11 ="
b11 {"
b11 B#
b11 O#
b111 y
b111 h"
b111 ~"
b11 X"
b11 t
b11 ["
b11 3#
b11 V"
b11 Z"
b0 u
b0 \"
b0 0#
b0 m
b0 >"
b0 f"
b0 D"
b110 k
b110 E"
b110 g"
b110 K"
b0 '
b0 -
b0 3
b0 ]
b0 :#
b1010 q
b1010 ;#
b1010 ?#
08
1I
b1 U
b1 X
b1 \
0A
19
b101 T
b101 [
b100 S
b100 W
b100 Z
b10001 z
b10001 `"
b10001 !#
b10001 _"
b11001 ~
b11001 i"
b11001 r"
b101000010001100 (
b101000010001100 0
b101000010001100 2
b101000010001100 `
b101000010001100 b"
b10 O
b10 <"
b10 C#
b10 P#
b111 }"
b10 |"
b11 z"
b111 y"
b11001 q"
b11001 p"
b11001 o"
b10 J
b10 0"
b10 F"
b10 W#
b0 K
b0 1"
b0 ?"
b0 V#
b110 h
b110 M"
b110 +#
b110 4#
b101 )
b101 /
b101 D
b101 i
b101 N"
b101 Q"
b101 5#
b101 A#
0/"
1,"
b111010011001 7
b111010011001 {
b111010011001 c"
b1000 }
b1000 O"
b1000 $#
b11 5"
b11 P"
b11 k"
b11 2#
b110 =
b110 +"
b110 n"
b110 t"
b110 Q#
b0 j
b0 m"
b0 s"
b0 1#
b0 l
b0 l"
b0 .#
b101 e
b101 S"
b101 >#
b110 !
b110 &
b110 +
b110 :
b110 6"
b110 A"
b110 H"
b110 T"
b110 v"
b1010 #
b1010 *
b1010 ,
b1010 P
b1010 :"
b1010 x"
b1010 =#
14
b10 ;
b10 )"
b10 E#
b10 N#
b10 S#
b110 ("
b110 D#
b110 M#
1$
#13000
b110 f
b110 J"
b110 G#
0$
#14000
b11 p
b11 @"
b11 G"
b11 <#
b11 K#
b110 $"
b110 B"
b110 I"
b110 ]"
b110 u"
b110 r
b110 9#
b110 I#
b0xxxxxxxxx x
b0xxxxxxxxx ##
b0xxxxxxxxx %#
bx Q
bx V
bx Y
bx ^
bx a"
b11 k
b11 E"
b11 g"
b11 K"
b1 '
b1 -
b1 3
b1 ]
b1 :#
b11 q
b11 ;#
b11 ?#
b110 W"
b110 X"
b110 V"
b110 Z"
b110 t
b110 ["
b110 3#
b0 R
b0 ="
b0 {"
b0 B#
b0 O#
b10 y
b10 h"
b10 ~"
b0 v
b0 )#
b0 -#
b110 s
b110 6#
b110 7#
x?
x#"
xT#
x>
xH
x8
xI
xM
bx U
bx X
bx \
b1100 ~
b1100 i"
b1100 r"
xL
bx0 (#
x@
xG
xA
xE
xN
x9
bx T
bx [
bx S
bx W
bx Z
b0xxxxxxxxx z
b0xxxxxxxxx `"
b0xxxxxxxxx !#
bx _"
b11 J
b11 0"
b11 F"
b11 W#
b0 }"
b1 z"
b0 y"
b1100 q"
b1100 p"
b1100 o"
bx (
bx 0
bx 2
bx `
bx b"
b1010 ("
b1010 D#
b1010 M#
b110 <
b110 *"
b110 w"
b110 L#
b110 R#
b1111111111111111 e
b1111111111111111 S"
b1111111111111111 >#
b0 !
b0 &
b0 +
b0 :
b0 6"
b0 A"
b0 H"
b0 T"
b0 v"
b11 #
b11 *
b11 ,
b11 P
b11 :"
b11 x"
b11 =#
0|
b11001 5"
b11001 P"
b11001 k"
b11001 2#
b111 =
b111 +"
b111 n"
b111 t"
b111 Q#
b110 j
b110 m"
b110 s"
b110 1#
1'"
1/"
0&"
0,"
b101000010001100 7
b101000010001100 {
b101000010001100 c"
b11111 }
b11111 O"
b11111 $#
b111 h
b111 M"
b111 +#
b111 4#
b110 )
b110 /
b110 D
b110 i
b110 N"
b110 Q"
b110 5#
b110 A#
1$
#15000
b1010 f
b1010 J"
b1010 G#
0$
